
Durée max pour chaque algorithme : 10 milli-secondes.


RandomSearch selon une évaluation complète
Fitness en moyenne : 4675458.102677684
Nombre de passage dans le while principal en moyenne : 8399

RandomSearch selon une évaluation incrémentale.
Fitness en moyenne : 4665366.4575427
Nombre de passage dans le while principal en moyenne : 77981

ILS selon une évaluation complète.
Fitness en moyenne : 5434054.0858402215
Nombre de passage dans le while principal en moyenne : 6

ILS selon une évaluation incrémentale.
Fitness en moyenne : 5186287.475217631
Nombre de passage dans le while principal en moyenne : 61

HillClimbing selon une évaluation complète.
Fitness : 5225711.653553721
Nombre de passage dans le while principal : 6

HillClimbing selon une évaluation incrémentale.
Fitness : 4651904.478016527
Nombre de passage dans le while principal : 60





Durée max pour chaque algorithme : 100 milli-secondes.


RandomSearch selon une évaluation complète
Fitness en moyenne : 4668225.531085401
Nombre de passage dans le while principal en moyenne : 84112

RandomSearch selon une évaluation incrémentale.
Fitness en moyenne : 4671222.544176308
Nombre de passage dans le while principal en moyenne : 775694

ILS selon une évaluation complète.
Fitness en moyenne : 5157551.159933883
Nombre de passage dans le while principal en moyenne : 58

ILS selon une évaluation incrémentale.
Fitness en moyenne : 4841008.443107439
Nombre de passage dans le while principal en moyenne : 627

HillClimbing selon une évaluation complète.
Fitness : 4651936.212892558
Nombre de passage dans le while principal : 58

HillClimbing selon une évaluation incrémentale.
Fitness : 4651904.478016527
Nombre de passage dans le while principal : 60





Durée max pour chaque algorithme : 1000 milli-secondes.


RandomSearch selon une évaluation complète
Fitness en moyenne : 4662443.79460055
Nombre de passage dans le while principal en moyenne : 837537

RandomSearch selon une évaluation incrémentale.
Fitness en moyenne : 4665766.067702479
Nombre de passage dans le while principal en moyenne : 7787150

ILS selon une évaluation complète.
Fitness en moyenne : 4852058.133752065
Nombre de passage dans le while principal en moyenne : 579

ILS selon une évaluation incrémentale.
Fitness en moyenne : 4672634.711338843
Nombre de passage dans le while principal en moyenne : 6283

HillClimbing selon une évaluation complète.
Fitness : 4651904.478016527
Nombre de passage dans le while principal : 60

HillClimbing selon une évaluation incrémentale.
Fitness : 4651904.478016527
Nombre de passage dans le while principal : 60





Durée max pour chaque algorithme : 2000 milli-secondes.


RandomSearch selon une évaluation complète
Fitness en moyenne : 4652967.089498623
Nombre de passage dans le while principal en moyenne : 1672194

RandomSearch selon une évaluation incrémentale.
Fitness en moyenne : 4659235.458953169
Nombre de passage dans le while principal en moyenne : 15452369

ILS selon une évaluation complète.
Fitness en moyenne : 4776438.362997245
Nombre de passage dans le while principal en moyenne : 1155

ILS selon une évaluation incrémentale.
Fitness en moyenne : 4649927.913851241
Nombre de passage dans le while principal en moyenne : 12567

HillClimbing selon une évaluation complète.
Fitness : 4651904.478016527
Nombre de passage dans le while principal : 60

HillClimbing selon une évaluation incrémentale.
Fitness : 4651904.478016527
Nombre de passage dans le while principal : 60




