
Durée max pour chaque algorithme : 10 milli-secondes.


RandomSearch selon une évaluation complète
Fitness en moyenne : 5402797.591975487
Nombre de passage dans le while principal en moyenne : 7308

RandomSearch selon une évaluation incrémentale.
Fitness en moyenne : 5353358.519122857
Nombre de passage dans le while principal en moyenne : 73541

ILS selon une évaluation complète.
Fitness en moyenne : 6251918.422005171
Nombre de passage dans le while principal en moyenne : 4

ILS selon une évaluation incrémentale.
Fitness en moyenne : 5949845.486469402
Nombre de passage dans le while principal en moyenne : 49

HillClimbing selon une évaluation complète.
Fitness : 6100263.029014646
Nombre de passage dans le while principal : 5

HillClimbing selon une évaluation incrémentale.
Fitness : 5326095.064062052
Nombre de passage dans le while principal : 54





Durée max pour chaque algorithme : 100 milli-secondes.


RandomSearch selon une évaluation complète
Fitness en moyenne : 5366798.103246192
Nombre de passage dans le while principal en moyenne : 73184

RandomSearch selon une évaluation incrémentale.
Fitness en moyenne : 5352010.685205401
Nombre de passage dans le while principal en moyenne : 743071

ILS selon une évaluation complète.
Fitness en moyenne : 5961220.416566119
Nombre de passage dans le while principal en moyenne : 44

ILS selon une évaluation incrémentale.
Fitness en moyenne : 5583881.528871016
Nombre de passage dans le while principal en moyenne : 512

HillClimbing selon une évaluation complète.
Fitness : 5337244.184429759
Nombre de passage dans le while principal : 44

HillClimbing selon une évaluation incrémentale.
Fitness : 5326095.064062052
Nombre de passage dans le while principal : 55





Durée max pour chaque algorithme : 1000 milli-secondes.


RandomSearch selon une évaluation complète
Fitness en moyenne : 5367807.659159243
Nombre de passage dans le while principal en moyenne : 732671

RandomSearch selon une évaluation incrémentale.
Fitness en moyenne : 5359490.51205592
Nombre de passage dans le while principal en moyenne : 7400402

ILS selon une évaluation complète.
Fitness en moyenne : 5618468.040677967
Nombre de passage dans le while principal en moyenne : 439

ILS selon une évaluation incrémentale.
Fitness en moyenne : 5385922.891602029
Nombre de passage dans le while principal en moyenne : 5141

HillClimbing selon une évaluation complète.
Fitness : 5326095.064062052
Nombre de passage dans le while principal : 55

HillClimbing selon une évaluation incrémentale.
Fitness : 5326095.064062052
Nombre de passage dans le while principal : 55





Durée max pour chaque algorithme : 2000 milli-secondes.


RandomSearch selon une évaluation complète
Fitness en moyenne : 5348883.023843722
Nombre de passage dans le while principal en moyenne : 1469852

RandomSearch selon une évaluation incrémentale.
Fitness en moyenne : 5361779.697443262
Nombre de passage dans le while principal en moyenne : 14832497

ILS selon une évaluation complète.
Fitness en moyenne : 5515601.47649143
Nombre de passage dans le while principal en moyenne : 878

ILS selon une évaluation incrémentale.
Fitness en moyenne : 5348015.028708223
Nombre de passage dans le while principal en moyenne : 10295

HillClimbing selon une évaluation complète.
Fitness : 5326095.064062052
Nombre de passage dans le while principal : 55

HillClimbing selon une évaluation incrémentale.
Fitness : 5326095.064062052
Nombre de passage dans le while principal : 55




